<svg width="14" height="14" viewBox="0 0 14 14" fill="none" xmlns="http://www.w3.org/2000/svg">
<path fill-rule="evenodd" clip-rule="evenodd" d="M6.24506 0C5.46644 0 4.83524 0.659994 4.83524 1.47414C4.83524 2.28828 5.46644 2.94828 6.24506 2.94828C7.02368 2.94828 7.65488 2.28828 7.65488 1.47414C7.65488 0.659994 7.02368 0 6.24506 0ZM12.4557 2.21841C12.3246 2.20597 12.191 2.20773 12.0564 2.22272C11.5181 2.28269 10.9675 2.55657 10.5337 3.01018C9.76231 3.81679 9.53656 5.00424 10.0408 5.82889L9.0647 6.84956V6.63362H7.1083L6.31528 5.07887C6.31528 5.07887 6.29552 5.0404 6.29325 5.03568L6.15557 4.76648L6.15419 4.76792C6.13987 4.73997 6.1285 4.71679 6.11826 4.69593L6.11826 4.69593C6.09901 4.65671 6.08379 4.62569 6.06057 4.58653C5.74407 4.04626 5.17677 3.68535 4.52684 3.68535C3.92837 3.68535 3.39155 3.9844 3.07434 4.46129C2.98753 4.59219 2.88492 4.74168 2.77355 4.90395C2.22018 5.71013 1.45044 6.83156 1.32721 7.55496C1.31664 7.61982 1.31069 7.681 1.31069 7.73923C1.31069 7.91097 1.43946 8.54212 1.49656 8.77429C1.67631 9.50178 1.91916 10.4282 2.01009 10.7724L0 12.9995L1.03396 14L3.2368 11.557C3.35805 11.4207 3.42542 11.2418 3.42542 11.056V8.80452C3.42542 8.62615 3.48681 8.45353 3.5989 8.31938L5.32124 6.26509L6.06333 7.71764C6.18592 7.95788 6.4252 8.10789 6.68563 8.10776H9.0647V7.89183L10.5392 6.35003C11.3279 6.8773 12.4635 6.64126 13.235 5.83465C14.1023 4.9277 14.2849 3.53531 13.5089 2.7237C13.2177 2.41919 12.8489 2.25571 12.4557 2.21841ZM13.0106 3.24483C12.8455 3.07228 12.6178 2.97407 12.3635 2.95404C12.2787 2.94736 12.1914 2.94876 12.1019 2.95979C11.7438 3.00394 11.3582 3.19036 11.0321 3.53131C10.38 4.21322 10.3181 5.13985 10.7582 5.6C11.1982 6.06015 12.0844 5.99543 12.7366 5.31352C13.3887 4.63169 13.4516 3.70406 13.0119 3.24483H13.0106ZM13.2941 8.10776C12.9048 8.10776 12.5892 8.43776 12.5892 8.84483C12.5892 9.2519 12.9048 9.5819 13.2941 9.5819C13.6835 9.5819 13.9991 9.2519 13.9991 8.84483C13.9991 8.43776 13.6835 8.10776 13.2941 8.10776ZM4.13037 8.80452L4.24877 8.66344L6.03858 10.5349C6.1267 10.6263 6.18927 10.7407 6.2217 10.866L6.92661 13.5854L5.5636 13.9654L4.90825 11.4375L4.13037 10.6242V8.80452Z" fill="#A9A7AF"/>
</svg>
