<svg width="14" height="14" viewBox="0 0 14 14" fill="none" xmlns="http://www.w3.org/2000/svg">
<path fill-rule="evenodd" clip-rule="evenodd" d="M13.025 0.946432L13.0459 0.96743C14.7748 2.78023 14.1822 7.88967 11.0381 11.0463C8.98162 13.1111 6.23493 14 4.05989 14C2.71443 14 1.59206 13.664 0.985553 13.0481C-1.2104 10.8503 0.623046 5.36995 2.97237 2.96221C6.15825 -0.173445 11.2403 -0.775379 13.025 0.946432ZM8.95381 7.84767L9.94373 6.85378L9.03746 5.95088L10.2923 4.69802L9.30237 3.70413L8.05451 4.96399L7.15522 4.05409L6.16529 5.04798L7.07156 5.95088L5.96313 7.06376L5.06383 6.15386L4.07391 7.14775L4.98017 8.05065L3.72534 9.30351L4.71526 10.2974L5.96313 9.03754L6.86242 9.94744L7.85234 8.95355L6.94608 8.05065L8.05451 6.93777L8.95381 7.84767Z" fill="#A9A7AF"/>
</svg>
