<svg width="12" height="12" viewBox="0 0 12 12" fill="none" xmlns="http://www.w3.org/2000/svg">
<path fill-rule="evenodd" clip-rule="evenodd" d="M6 12C9.31371 12 12 9.31371 12 6C12 2.68629 9.31371 0 6 0C2.68629 0 0 2.68629 0 6C0 9.31371 2.68629 12 6 12ZM2.35366 6.85345C2.1584 6.65818 2.1584 6.3416 2.35366 6.14634C2.54892 5.95108 2.8655 5.95108 3.06077 6.14634L4.82841 7.91399L8.71739 4.02501C8.91266 3.82974 9.22924 3.82974 9.4245 4.02501C9.61976 4.22027 9.61976 4.53685 9.4245 4.73211L5.53552 8.62109L5.53564 8.62121C5.32586 8.831 5.04606 8.92809 4.77146 8.91249C4.5348 8.89909 4.302 8.802 4.1212 8.6212L4.12131 8.62109L2.35366 6.85345Z" fill="#0CB000"/>
</svg>
